{
  "project_info": {
    "project_number": "1070900638724",
    "project_id": "jisakie-io",
    "storage_bucket": "jisakie-io.appspot.com"
  },
  "client": [
    {
      "client_info": {
        "mobilesdk_app_id": "1:1070900638724:android:f6c6cb70c1e46a125db151",
        "android_client_info": {
          "package_name": "com.example.app"
        }
      },
      "oauth_client": [],
      "api_key": [
        {
          "current_key": "AIzaSyAw1OlcH3hCDTGxGmUGS8-X024LBwDWOb8"
        }
      ],
      "services": {
        "appinvite_service": {
          "other_platform_oauth_client": []
        }
      }
    }
  ],
  "configuration_version": "1"
}